module gitlab.com/brianbreniser/go-ai-langchain-experiments

go 1.21.4

require (
	github.com/Masterminds/goutils v1.1.1 // indirect
	github.com/Masterminds/semver/v3 v3.2.0 // indirect
	github.com/Masterminds/sprig/v3 v3.2.3 // indirect
	github.com/akamensky/argparse v1.4.0 // indirect
	github.com/dlclark/regexp2 v1.8.1 // indirect
	github.com/dustin/go-humanize v1.0.1 // indirect
	github.com/google/uuid v1.3.0 // indirect
	github.com/goph/emperror v0.17.2 // indirect
	github.com/huandu/xstrings v1.3.3 // indirect
	github.com/imdario/mergo v0.3.11 // indirect
	github.com/json-iterator/go v1.1.12 // indirect
	github.com/mitchellh/copystructure v1.0.0 // indirect
	github.com/mitchellh/reflectwalk v1.0.0 // indirect
	github.com/modern-go/concurrent v0.0.0-20180306012644-bacd9c7ef1dd // indirect
	github.com/modern-go/reflect2 v1.0.2 // indirect
	github.com/nikolalohinski/gonja v1.5.3 // indirect
	github.com/pelletier/go-toml/v2 v2.0.9 // indirect
	github.com/pkg/errors v0.9.1 // indirect
	github.com/pkoukk/tiktoken-go v0.1.2 // indirect
	github.com/shopspring/decimal v1.2.0 // indirect
	github.com/sirupsen/logrus v1.9.3 // indirect
	github.com/spf13/cast v1.3.1 // indirect
	github.com/tmc/langchaingo v0.1.3 // indirect
	github.com/yargevad/filepathx v1.0.0 // indirect
	golang.org/x/crypto v0.17.0 // indirect
	golang.org/x/exp v0.0.0-20230713183714-613f0c0eb8a1 // indirect
	golang.org/x/sys v0.15.0 // indirect
	gopkg.in/yaml.v3 v3.0.1 // indirect
)
